{
  "swagger": "2.0",
  "info": {
    "title": "InOut API",
    "version": "v1"
  },
  "paths": {
    "/api/v1/branches/{branch_id}/employees": {
      "parameters": [
        {
          "name": "X-Employee-Email",
          "in": "header",
          "type": "string"
        },
        {
          "name": "X-Employee-Token",
          "in": "header",
          "type": "string"
        },
        {
          "name": "branch_id",
          "in": "path",
          "type": "integer",
          "required": true
        },
        {
          "name": "body",
          "in": "body",
          "schema": {
            "type": "object",
            "properties": {
              "name": {
                "type": "string"
              },
              "email": {
                "type": "string"
              },
              "password": {
                "type": "string"
              },
              "password_confirmation": {
                "type": "string"
              }
            }
          }
        }
      ],
      "get": {
        "responses": {
          "200": {
            "examples": {
              "application/json": {
                "data": [
                  {
                    "id": "1022",
                    "type": "employee",
                    "attributes": {
                      "id": 1022,
                      "name": "Meta Gibson",
                      "address": "402 Heaney Ranch",
                      "phone_number": "1-231-683-1426",
                      "emergency_number": "706.422.2343",
                      "photo": null,
                      "position": "Developer",
                      "email": "junior@robel.biz",
                      "role": "employee",
                      "aasm_state": "out",
                      "branch": {
                        "id": 547,
                        "name": "MyString",
                        "location": "MyString",
                        "company_id": 547,
                        "created_at": "2019-06-27T08:54:19.105-05:00",
                        "updated_at": "2019-06-27T08:54:19.105-05:00"
                      },
                      "created_at": "2019-06-27T08:54:19.141-05:00",
                      "updated_at": "2019-06-27T08:54:19.141-05:00",
                      "state": "Out",
                      "current_week_time_tracked": null
                    }
                  },
                  {
                    "id": "1023",
                    "type": "employee",
                    "attributes": {
                      "id": 1023,
                      "name": "Ruth Gaylord",
                      "address": "4455 Rosendo Harbor",
                      "phone_number": "1-161-960-1445 x917",
                      "emergency_number": "1-238-125-0300",
                      "photo": null,
                      "position": "Engineer",
                      "email": "latina@schneiderlarkin.info",
                      "role": "employee",
                      "aasm_state": "out",
                      "branch": {
                        "id": 547,
                        "name": "MyString",
                        "location": "MyString",
                        "company_id": 547,
                        "created_at": "2019-06-27T08:54:19.105-05:00",
                        "updated_at": "2019-06-27T08:54:19.105-05:00"
                      },
                      "created_at": "2019-06-27T08:54:19.147-05:00",
                      "updated_at": "2019-06-27T08:54:19.147-05:00",
                      "state": "Out",
                      "current_week_time_tracked": null
                    }
                  },
                  {
                    "id": "1024",
                    "type": "employee",
                    "attributes": {
                      "id": 1024,
                      "name": "Shakita Ondricka",
                      "address": "26130 Zboncak Fall",
                      "phone_number": "326.164.8744",
                      "emergency_number": "629-232-0670",
                      "photo": null,
                      "position": "Consultant",
                      "email": "kyra@padbergsteuber.name",
                      "role": "employee",
                      "aasm_state": "out",
                      "branch": {
                        "id": 547,
                        "name": "MyString",
                        "location": "MyString",
                        "company_id": 547,
                        "created_at": "2019-06-27T08:54:19.105-05:00",
                        "updated_at": "2019-06-27T08:54:19.105-05:00"
                      },
                      "created_at": "2019-06-27T08:54:19.154-05:00",
                      "updated_at": "2019-06-27T08:54:19.154-05:00",
                      "state": "Out",
                      "current_week_time_tracked": null
                    }
                  },
                  {
                    "id": "1025",
                    "type": "employee",
                    "attributes": {
                      "id": 1025,
                      "name": "Ms. Marquis Hauck",
                      "address": "784 Val Lights",
                      "phone_number": "895-934-7368",
                      "emergency_number": "541.974.6903",
                      "photo": null,
                      "position": "Executive",
                      "email": "ruelgleichner@nikolaus.net",
                      "role": "employee",
                      "aasm_state": "out",
                      "branch": {
                        "id": 547,
                        "name": "MyString",
                        "location": "MyString",
                        "company_id": 547,
                        "created_at": "2019-06-27T08:54:19.105-05:00",
                        "updated_at": "2019-06-27T08:54:19.105-05:00"
                      },
                      "created_at": "2019-06-27T08:54:19.162-05:00",
                      "updated_at": "2019-06-27T08:54:19.162-05:00",
                      "state": "Out",
                      "current_week_time_tracked": null
                    }
                  },
                  {
                    "id": "1026",
                    "type": "employee",
                    "attributes": {
                      "id": 1026,
                      "name": "Matthew Bogan",
                      "address": "688 Noe Vista",
                      "phone_number": "1-121-547-0355",
                      "emergency_number": "839-094-4596",
                      "photo": null,
                      "position": "Consultant",
                      "email": "yoshie@haley.net",
                      "role": "employee",
                      "aasm_state": "out",
                      "branch": {
                        "id": 547,
                        "name": "MyString",
                        "location": "MyString",
                        "company_id": 547,
                        "created_at": "2019-06-27T08:54:19.105-05:00",
                        "updated_at": "2019-06-27T08:54:19.105-05:00"
                      },
                      "created_at": "2019-06-27T08:54:19.168-05:00",
                      "updated_at": "2019-06-27T08:54:19.168-05:00",
                      "state": "Out",
                      "current_week_time_tracked": null
                    }
                  },
                  {
                    "id": "1027",
                    "type": "employee",
                    "attributes": {
                      "id": 1027,
                      "name": "Michelina O'Conner",
                      "address": "996 Schultz Cliff",
                      "phone_number": "511-655-8486",
                      "emergency_number": "944.759.9834 x3342",
                      "photo": null,
                      "position": "Planner",
                      "email": "lorainequigley@leuschke.info",
                      "role": "manager",
                      "aasm_state": "out",
                      "branch": {
                        "id": 547,
                        "name": "MyString",
                        "location": "MyString",
                        "company_id": 547,
                        "created_at": "2019-06-27T08:54:19.105-05:00",
                        "updated_at": "2019-06-27T08:54:19.105-05:00"
                      },
                      "created_at": "2019-06-27T08:54:19.173-05:00",
                      "updated_at": "2019-06-27T08:54:19.173-05:00",
                      "state": "Out",
                      "current_week_time_tracked": null
                    }
                  }
                ]
              }
            },
            "description": "employees fetched successfully"
          }
        },
        "tags": [
          "employees"
        ],
        "summary": "Fetch Employees collection as Manager"
      },
      "post": {
        "responses": {
          "201": {
            "examples": {
              "application/json": {
                "data": {
                  "id": "1034",
                  "type": "employee",
                  "attributes": {
                    "id": 1034,
                    "name": "Faker::Internet",
                    "address": null,
                    "phone_number": null,
                    "emergency_number": null,
                    "photo": null,
                    "position": null,
                    "email": "amaliabreitenberg@rowe.io",
                    "role": "employee",
                    "aasm_state": "out",
                    "branch": {
                      "id": 548,
                      "name": "MyString",
                      "location": "MyString",
                      "company_id": 548,
                      "created_at": "2019-06-27T08:54:19.239-05:00",
                      "updated_at": "2019-06-27T08:54:19.239-05:00"
                    },
                    "created_at": "2019-06-27T08:54:19.297-05:00",
                    "updated_at": "2019-06-27T08:54:19.297-05:00",
                    "state": "Out",
                    "current_week_time_tracked": null
                  }
                }
              }
            },
            "description": "employees successfully created"
          }
        },
        "tags": [
          "employees"
        ],
        "summary": "Creates a New Employee as Manager",
        "consumes": [
          "application/json"
        ],
        "produces": [
          "application/json"
        ]
      }
    },
    "/api/v1/branches/{branch_id}/employees/{employee_id}/clock_in": {
      "parameters": [
        {
          "name": "X-Employee-Email",
          "in": "header",
          "type": "string"
        },
        {
          "name": "X-Employee-Token",
          "in": "header",
          "type": "string"
        },
        {
          "name": "branch_id",
          "in": "path",
          "type": "integer",
          "required": true
        },
        {
          "name": "employee_id",
          "in": "path",
          "type": "integer",
          "required": true
        }
      ],
      "post": {
        "responses": {
          "200": {
            "examples": {
              "application/json": {
                "message": "clock_in executed"
              }
            },
            "description": "clock in successfully started"
          }
        },
        "tags": [
          "employees"
        ],
        "summary": "Clock In Employee as Manager"
      }
    },
    "/api/v1/branches/{branch_id}/employees/{employee_id}/clock_out": {
      "parameters": [
        {
          "name": "X-Employee-Email",
          "in": "header",
          "type": "string"
        },
        {
          "name": "X-Employee-Token",
          "in": "header",
          "type": "string"
        },
        {
          "name": "branch_id",
          "in": "path",
          "type": "integer",
          "required": true
        },
        {
          "name": "employee_id",
          "in": "path",
          "type": "integer",
          "required": true
        }
      ],
      "post": {
        "responses": {
          "200": {
            "examples": {
              "application/json": {
                "message": "clock_out executed"
              }
            },
            "description": "clock out successfully executed"
          }
        },
        "tags": [
          "employees"
        ],
        "summary": "Clock Out Employee as Manager"
      }
    },
    "/api/v1/sessions": {
      "parameters": [
        {
          "name": "X-Employee-Email",
          "in": "header",
          "type": "string"
        },
        {
          "name": "X-Employee-Token",
          "in": "header",
          "type": "string"
        }
      ],
      "get": {
        "responses": {
          "200": {
            "description": "successful"
          }
        },
        "tags": [
          "sessions"
        ],
        "summary": "fetch session"
      },
      "post": {
        "responses": {
          "201": {
            "description": "session successfully created",
            "examples": {
              "application/json": {
                "employee": {
                  "data": {
                    "id": "1049",
                    "type": "employee",
                    "attributes": {
                      "id": 1049,
                      "name": "Miss Duncan Effertz",
                      "address": "62108 Crona Meadow",
                      "phone_number": "(730) 534-3558 x7707",
                      "emergency_number": "113-209-8056 x4619",
                      "photo": null,
                      "position": "Orchestrator",
                      "email": "dorene@metz.com",
                      "role": "employee",
                      "aasm_state": "out",
                      "branch": {
                        "id": 553,
                        "name": "MyString",
                        "location": "MyString",
                        "company_id": 553,
                        "created_at": "2019-06-27T08:54:19.548-05:00",
                        "updated_at": "2019-06-27T08:54:19.548-05:00"
                      },
                      "created_at": "2019-06-27T08:54:19.551-05:00",
                      "updated_at": "2019-06-27T08:54:19.551-05:00",
                      "state": "Out",
                      "current_week_time_tracked": null
                    }
                  }
                },
                "authentication_token": "RjCTwKdyQUT5BkZBpjGk"
              }
            }
          }
        },
        "parameters": [
          {
            "name": "body",
            "in": "body",
            "schema": {
              "type": "object",
              "properties": {
                "email": {
                  "type": "string"
                },
                "password": {
                  "type": "string"
                }
              }
            }
          }
        ],
        "tags": [
          "sessions"
        ],
        "summary": "create",
        "consumes": [
          "application/json"
        ],
        "produces": [
          "application/json"
        ]
      },
      "delete": {
        "responses": {
          "200": {
            "description": "successful"
          }
        },
        "tags": [
          "sessions"
        ],
        "summary": "fetch session"
      }
    }
  }
}
